AttitudeDude,Barracus,The Tenacious,Dune Runner,Baughe,Baughe,Baughe,Revolt Ranger,Dreamhaunter,Ezamit Serene,,,,,,,,,,,,,,,,
,Terrogor,Halcyon-5,Tumbler,Philistine,Foul Recluse-1,,,,,,,,,,,,,,,,,,,,
Bulldozerman,Daedalus,Dreamhaunter,Xillanail,basilisk unearthed,deserted baughe,bane of truth,steadfast assailant,tazerecca,arch nova alpha,,,,,,,,,,,,,,,,
,Blackrock-5,the tenacious,razor maiden-5,demon of embers-5,sacred sanctuary,sonar sentry,tartarus scion,auger bore,constrictor,ascendant-3,ascendant-4,ezamit serene,typhon vex-5,barracus,nexor,,,,,,,,,,
Russel1968,Daedalus,Dune Runner,Dune Runner,Dune Runner,Inferno Demon,Deserted Baughe,Abhorrent Recluse,Cadmus the Dragon,Dreamhaunter,,,,,,,,,,,,,,,,
,Draconian Sovereign,Corrupted Fortifier,Gorrus Rav,Sicalla,Insanitius,Immense Ospry,Soulsteel Mount,Templar,Honorable Samurai,Arch Nova Elite,Petrisis,Barracus,Tikal-5,Lurker Beast-4,Genetics Pit-4,Daemon-5 x2,Equalizer-4,Contaminant Scour-5,Vigil-5,Demon of Embers-5,Missile Silo-4 x2,Iron Maiden-5,Bulldozer-4,Havoc-5,Absorption Shield-5
blargney,Barracus,Abhorrent Recluse,Dreamhaunter,Dune Runner,Deserted Baughe,Revolt Ranger,Tumblox,Ezamit Serene,Xanadu Ultra,,,,,,,,,,,,,,,,
,Animus Geist,Demon of Flame,Arch Nova Elite,Assailant-5,Trench Lobber,,,,,,,,,,,,,,,,,,,,
ZaranVI,Daedalus,Dune Runner,Dune Runner,Deserted Baughe,Dreamhaunter,Steadfast Assailant,Xillanail,Pulverizer,Lynx Outlast,Guardian Gamut,,,,,,,,,,,,,,,
,Halcyon,Blackrock Cleaver,Auger Bore,,,,,,,,,,,,,,,,,,,,,,
Rakshasa_V,Barracus,Dreamhunter,Xillanail,Inferno Demon,Bane of Truth,Auger Bore,Jilted Baughe,Ezamit Serene,Elite Brigade-5,,,,,,,,,,,,,,,,
,The Tenacious,Tumblox,Tumblox,Animus Geist,Baughe,Arch Nova Elite,,,,,,,,,,,,,,,,,,,
cypher00,Barracus,Dune Runner,Dune Runner,deserted Baughe,Dreamhaunter,Steadfast Assailant,Xillanail,Lurker Behemoth,Ezamit Serene,Xanadu Ultra,,,,,,,,,,,,,,,
,Daedalus-4,Arch nova Elite,Tumblox,Spiteful raptor,Tartarus Brood,Masterworks Aegis,,,,,,,,,,,,,,,,,,,
deadfrogs2,Barracus,Jilted Baughe,Jilted Baughe,Auger Ream-4,Dreamreaper,Ezamit Serene,Bane of Truth,Inferno Demon,Sacred Sanctuary,Seize,Xillaclaw,,,,,,,,,,,,,,
,Jilted Baughe-4,Demon of Flame,Vigil,Precursor Idealist,Sonar Sentry-4,Ospry,Soulsteel Bronco-4,Constrictor,Dreamweaver,,,,,,,,,,,,,,,,
Drexxie,,,,,,,,,,,,,,,,,,,,,,,,,
,,,,,,,,,,,,,,,,,,,,,,,,,
Zion117,,,,,,,,,,,,,,,,,,,,,,,,,
,,,,,,,,,,,,,,,,,,,,,,,,,
SnoopWajkosz,,,,,,,,,,,,,,,,,,,,,,,,,
,,,,,,,,,,,,,,,,,,,,,,,,,
Cellofoon,Barracus,Auger Bore,Arch Nova Elite,Dreamhaunter,Ezamit Serene,Dune Runner,Tumblox,Xillanail,Jilted Baughe,Jilted Baughe,,,,,,,,,,,,,,,
,Yurich-4,Halcyon-4,Blitz Plate(2),Venomous Raptor-5,Sinew Feeder-4,Emerging Basilisk,Tiamat,Bane of Triumph,Demon of Embers-5,Assailant,Omega-4,Constrictor,,,,,,,,,,,,,
ianmck123,Barracus,The Adversary,Dreamhaunter,Ezamit Serene,Inferno Demon,Abhorrent Recluse,Jilted Baughe,Baughe,Auger Bore-5,Dune Runner-5,,,,,,,,,,,,,,,
,Xeno Overlord-5,Aegis,Tumbler-5,Virtue-4,,,,,,,,,,,,,,,,,,,,,
xsandr24,,,,,,,,,,,,,,,,,,,,,,,,,
,,,,,,,,,,,,,,,,,,,,,,,,,
Ramrod1968,Barracus,Omega Nexite,Revolt Ranger,Dune Runner,Deserted Baughe,Allogarb,,,,,,,,,,,,,,,,,,,
,Nexusisite,Tiamat the Destroyer,Bulldozer-4,Tumbler,Vigil,Xeno Overload,Genetics Pit-5,Unholy Daemon,Lurker Beast-4,,,,,,,,,,,,,,,,
rovarian,Barracus,Zodiac Harbinger,Inferno Demon,Jilted Baughe,Jilted Baughe,Xillanail,Noble Defiance,Zodiac Harbinger,,,,,,,,,,,,,,,,,
,Constrictor,Dreamreaper,Lightning Crag,Dutiful Veteran,Hellion,,,,,,,,,,,,,,,,,,,,
rkyo,,,,,,,,,,,,,,,,,,,,,,,,,
,,,,,,,,,,,,,,,,,,,,,,,,,
mpboisvert,,,,,,,,,,,,,,,,,,,,,,,,,
,,,,,,,,,,,,,,,,,,,,,,,,,
widelyunknown,,,,,,,,,,,,,,,,,,,,,,,,,
,,,,,,,,,,,,,,,,,,,,,,,,,
DaeYongH,,,,,,,,,,,,,,,,,,,,,,,,,
,,,,,,,,,,,,,,,,,,,,,,,,,
ropaire,Galvanic Commando,Kruger Firebolt,Daedalus,Lone Survivor,indestructible troop,absorption forceful,Gauss Carronade,The Tenacious,Fleet Baron,Dune Runner,Auger Bore,Elite Brigade,,,,,,,,,,,,,
,Bane of Triumph,Lancer,Rox Chainblade,Odynn,Halcyon,Tabitha,Stratus Transmitter,,,,,,,,,,,,,,,,,,
Saulotjunk,,,,,,,,,,,,,,,,,,,,,,,,,
,,,,,,,,,,,,,,,,,,,,,,,,,
lfyc07,,,,,,,,,,,,,,,,,,,,,,,,,
,,,,,,,,,,,,,,,,,,,,,,,,,
Landrosill,,,,,,,,,,,,,,,,,,,,,,,,,
,,,,,,,,,,,,,,,,,,,,,,,,,
Starfal83,,,,,,,,,,,,,,,,,,,,,,,,,
,,,,,,,,,,,,,,,,,,,,,,,,,
tcgnoah,Barracus,Inferno Demon,Dune Runner,Jilted Baughe,Baughe,Dreamreaper,,,,,,,,,,,,,,,,,,,
,Petrisis-4,Xillaclaw-5,Foul Recluse-5,Defiance-5,Lucidier-3,Halesurge,Halesurge-4,Virtue-4,Fanatic-4,Extinguisher-4,Rampage Rumbler-4,Draconian Matriarch-4,Aegis-5,Subterran Horror,Blight Demolisher-4,,,,,,,,,,
shugiosha,,,,,,,,,,,,,,,,,,,,,,,,,
,,,,,,,,,,,,,,,,,,,,,,,,,
syds vicious,Nexor,Dune Runner ,Dune Runner,Jilted Baughe,Jilted Baughe,Parasitoid,Ezamit Serene,Tazerok,Demi Constrictor,,,,,,,,,,,,,,,,
,Masterwork Aegis,Absorption Shield,Krieg,Xillaclaw,Nimbus,Phantos,Lurker Horror -5,Dreamreaper,,,,,,,,,,,,,,,,,
sykizol,,,,,,,,,,,,,,,,,,,,,,,,,
,,,,,,,,,,,,,,,,,,,,,,,,,
ArchangelDC,,,,,,,,,,,,,,,,,,,,,,,,,
,,,,,,,,,,,,,,,,,,,,,,,,,
nikelav,,,,,,,,,,,,,,,,,,,,,,,,,
,,,,,,,,,,,,,,,,,,,,,,,,,
eldpawl,Barracus,Shining Sanctuary,Falcion,Dire Retriever,Baughe,Baughe,Ascendant,Ezamit Serene,,,,,,,,,,,,,,,,,
,Ascendant-5,Lucidier-5,Dreamweaver-5 x2,Tazerok-5,Divinity-5,Messiar-5,Benediction-5 x3,Trench-5,Cyberpod-5,Emerald Rider-5,Numbus-1,Gluttonous Fiend-5,Tartarus Scion-5 x2,Malgoth-5 x2,Halesurge,Lurker Beast-5 x3,Xillafang-5,Genetics Pit-5 x2,Daemon-5,Xeno Mothership-5,Dreadship-5,Retriever-5,Fanatic-5,Sanctuary-4,Pantheon Progeny-5
SirDurendal,,,,,,,,,,,,,,,,,,,,,,,,,
,,,,,,,,,,,,,,,,,,,,,,,,,
mikehips,,,,,,,,,,,,,,,,,,,,,,,,,
,,,,,,,,,,,,,,,,,,,,,,,,,
Eyanya,Smite Forger,Smite Forger,Bauge,Bauge,Philistine,Dire Retriever,Dutiful Veteran,Barracus,,,,,,,,,,,,,,,,,
,Blitz Plate,Equalizer-5,Nimbus,Ascendant,Dreamreaper-4,,Empress-4,,,,,,,,,,,,,,,,,,
Malecalvati,Barracus,Haleflash,Tartarus Scion,Tazerecca-5,Fenflame,Ezamit Serene,Blitz Plate(2),Xanadu Tetra,Baughe,Jilted Baughe-5,,,,,,,,,,,,,,,
,Tiamat,Extinguisher of Light,Shining Sanctuary,Omega,Terrogor,,,,,,,,,,,,,,,,,,,,
Comtek,,,,,,,,,,,,,,,,,,,,,,,,,
,,,,,,,,,,,,,,,,,,,,,,,,,
Haesligg,,,,,,,,,,,,,,,,,,,,,,,,,
,,,,,,,,,,,,,,,,,,,,,,,,,
Jpeg.13,,,,,,,,,,,,,,,,,,,,,,,,,
,,,,,,,,,,,,,,,,,,,,,,,,,
Kazickun,,,,,,,,,,,,,,,,,,,,,,,,,
,,,,,,,,,,,,,,,,,,,,,,,,,
JeanFrancoiT2,,,,,,,,,,,,,,,,,,,,,,,,,
,,,,,,,,,,,,,,,,,,,,,,,,,
colarullo,,,,,,,,,,,,,,,,,,,,,,,,,
,,,,,,,,,,,,,,,,,,,,,,,,,
shinjiikuri,,,,,,,,,,,,,,,,,,,,,,,,,
,,,,,,,,,,,,,,,,,,,,,,,,,
superath,Barracus,Radar Sentry,Baughe,Baughe,Halerift,Tartarus Scion,Absorption Barrier,Tumblox,Tumblox,Xillaclaw,Xillaclaw,,,,,,,,,,,,,,
,Vigil - 5,Equalizer - 4,Daemon - 5,Sporadic Nado - 6,Sporadic Nado - 4,Malgoth - 6,Dracorex - 5,Typhon Vex - 4,,,,,,,,,,,,,,,,,
Dchoratiusx,,,,,,,,,,,,,,,,,,,,,,,,,
,,,,,,,,,,,,,,,,,,,,,,,,,
Sanquinus,,,,,,,,,,,,,,,,,,,,,,,,,
,,,,,,,,,,,,,,,,,,,,,,,,,
jonny050209,,,,,,,,,,,,,,,,,,,,,,,,,
,,,,,,,,,,,,,,,,,,,,,,,,,
kragej,Halcyon,Dune Runner,Jilted Baughe,Haleflash,Nimbus,Assailant,Brood Minion,Terminator Mech,Blitz Plate,Blitz Plate,Masterwork Aegis,,,,,,,,,,,,,,
,,Extinguisher,Nimbus,,,,,,,,,,,,,,,,,,,,,,
Lvh2oboy,Barracus,Toxic Tank,Gorrus Carn,Animus Geist,Deserted Baughe,Arch Nova Elite,,,,,,,,,,,,,,,,,,,
,Sinew Feeder-5,Burster-5,Tiamat,Blackrock Driller,Kronus,Missile Silo-4,,,,,,,,,,,,,,,,,,,
